{
	"images": [{
		"imageName": "Polygon",
		"position": {
			"X": 0,
			"Y": 0
		},
		"size": {
			"X": 64,
			"Y": 64
		}
	},{
		"imageName": "Room",
		"position": {
			"X": 64,
			"Y": 0
		},
		"size": {
			"X": 64,
			"Y": 64
		}
	},{
		"imageName": "PointSelector",
		"position": {
			"X": 128,
			"Y": 0
		},
		"size": {
			"X": 64,
			"Y": 64
		}
	}]
}